		
			------create laravel project----

		-->   $HOME/.config/composer/vendor/bin/laravel new  prectice_1

           		-----create controlloer------
		-->   php artisan make:controller helloController(controllername)

			-----create  model --------
		--> php artisan make:model Service
	
			----create migration----------
		--> php artisan make:migration creates_services_table --create services  (table name is plurs)
		--> php artisan make:migration create_users_table --create=users

			--create migration and model---
		-->			----create migration----------
		--> php artisan make:migration creates_services_table --create services -m  (table name is plurs)


			--create model and migration---
		-->php artisan make:model customer --migration


			-----create foreignkey--------
	
		$table->unsignedBigInteger('Artists_id');
            	
		$table->foreign('Artists_id')		
                ->references('id')
                ->on('Artists')
                ->onDelete('cascade');
	
			----create middleware------
		php artian make:middleware demo

		------------create controller using all crud operation------
			
		php artisan make:controller PhotoController --resource


		{ "query": "mutation ($media_url: Upload!) { upload(input:{post_type:\"video\",user_id:\"8\",caption:\"nice\",media_url: $media_url}){ media_url } }", "variables": [{ "media_url": null }] }


            $table->bigIncrements('id');
            $table->unsignedBigInteger('user_id');
            $table->foreign('user_id')->references('id')->on('users');
            $table->unsignedBigInteger('Followed_user_id');
            $table->foreign('Followed_user_id')->references('id')->on('users');
            $table->boolean('status');
            $table->timestamps();			
